  0
SECTION
  2
HEADER
  9
$ACADVER
  1
AC1009
  9
$INSBASE
 10
0.0
 20
0.0
 30
0.0
  9
$EXTMIN
 10
0.0
 20
0.0
 30
0.0
  9
$EXTMAX
 10
0.0
 20
0.0
 30
0.0
  0
ENDSEC
  0
SECTION
  2
TABLES
  0
TABLE
  2
VPORT
 70
0
  0
ENDTAB
  0
TABLE
  2
LTYPE
 70
1
  0
LTYPE
  2
CONTINUOUS
 70
0
  3
Solid line
 72
65
 73
0
 40
0.0
  0
ENDTAB
  0
TABLE
  2
LAYER
 70
1
  0
LAYER
  2
0
 70
64
 62
7
  6
continuous
  0
ENDTAB
  0
TABLE
  2
STYLE
 70
1
  0
STYLE
  2
STANDARD
 70
0
 40
0
 41
1.0
 50
0.0
 71
0
 42
1
 3
ARIAL.TTF
 4

  0
ENDTAB
  0
TABLE
  2
VIEW
 70
0
  0
ENDTAB
  0
ENDSEC
  0
SECTION
  2
BLOCKS
  0
BLOCK
  8
0
  2
FACE007
 70
0
 10
0.0
 20
0.0
 30
0.0
  3
FACE007
  0
LINE
  8
0
 62
0
 10
50.5556788419
 20
114.3
 30
0.0
 11
84.5918868981
 21
114.3
 31
0.0
  0
POLYLINE
  8
0
 62
0
 70
0
 66
1
 10
0.0
 20
0.0
 30
0.0
  0
VERTEX
  8
0
 10
84.5918868981
 20
114.3
 30
0.0
  0
VERTEX
  8
0
 10
86.1984171243
 20
106.738333836
 30
0.0
  0
VERTEX
  8
0
 10
87.7470021247
 20
99.5806560848
 30
0.0
  0
VERTEX
  8
0
 10
89.2426263073
 20
92.8063204075
 30
0.0
  0
VERTEX
  8
0
 10
90.6902740802
 20
86.3946804676
 30
0.0
  0
VERTEX
  8
0
 10
92.0949298515
 20
80.3250899276
 30
0.0
  0
VERTEX
  8
0
 10
93.4615780293
 20
74.5769024504
 30
0.0
  0
VERTEX
  8
0
 10
94.7952030214
 20
69.1294716987
 30
0.0
  0
VERTEX
  8
0
 10
96.1007892361
 20
63.9621513352
 30
0.0
  0
VERTEX
  8
0
 10
97.3833210813
 20
59.0542950228
 30
0.0
  0
VERTEX
  8
0
 10
98.6477829651
 20
54.3852564241
 30
0.0
  0
VERTEX
  8
0
 10
99.8991592956
 20
49.9343892018
 30
0.0
  0
VERTEX
  8
0
 10
101.142434481
 20
45.6810470188
 30
0.0
  0
VERTEX
  8
0
 10
102.382592929
 20
41.6045835378
 30
0.0
  0
VERTEX
  8
0
 10
103.624619047
 20
37.6843524215
 30
0.0
  0
VERTEX
  8
0
 10
104.873497245
 20
33.8997073327
 30
0.0
  0
VERTEX
  8
0
 10
106.134211929
 20
30.2300019341
 30
0.0
  0
VERTEX
  8
0
 10
107.411747509
 20
26.6545898885
 30
0.0
  0
VERTEX
  8
0
 10
108.711088391
 20
23.1528248586
 30
0.0
  0
VERTEX
  8
0
 10
110.037218984
 20
19.7040605071
 30
0.0
  0
VERTEX
  8
0
 10
111.395123697
 20
16.2876504969
 30
0.0
  0
VERTEX
  8
0
 10
112.789786936
 20
12.8829484906
 30
0.0
  0
VERTEX
  8
0
 10
114.226193111
 20
9.46930815097
 30
0.0
  0
VERTEX
  8
0
 10
115.709326629
 20
6.02608314083
 30
0.0
  0
VERTEX
  8
0
 10
117.244171898
 20
2.53262712287
 30
0.0
  0
VERTEX
  8
0
 10
118.835690062
 20
-1.03168007684
 30
0.0
  0
VERTEX
  8
0
 10
120.484825744
 20
-4.68294159349
 30
0.0
  0
VERTEX
  8
0
 10
122.183974785
 20
-8.42764647615
 30
0.0
  0
VERTEX
  8
0
 10
123.924437676
 20
-12.2710519295
 30
0.0
  0
VERTEX
  8
0
 10
125.697514912
 20
-16.2184151582
 30
0.0
  0
VERTEX
  8
0
 10
127.494506984
 20
-20.2749933669
 30
0.0
  0
VERTEX
  8
0
 10
129.306714385
 20
-24.4460437604
 30
0.0
  0
VERTEX
  8
0
 10
131.125437609
 20
-28.7368235433
 30
0.0
  0
VERTEX
  8
0
 10
132.941977148
 20
-33.1525899203
 30
0.0
  0
VERTEX
  8
0
 10
134.747633494
 20
-37.6986000961
 30
0.0
  0
VERTEX
  8
0
 10
136.53370714
 20
-42.3801112753
 30
0.0
  0
VERTEX
  8
0
 10
138.29149858
 20
-47.2023806626
 30
0.0
  0
VERTEX
  8
0
 10
140.012308306
 20
-52.1706654628
 30
0.0
  0
VERTEX
  8
0
 10
141.68743681
 20
-57.2902228805
 30
0.0
  0
VERTEX
  8
0
 10
143.308184585
 20
-62.5663101203
 30
0.0
  0
VERTEX
  8
0
 10
144.865852124
 20
-68.0041843871
 30
0.0
  0
VERTEX
  8
0
 10
146.351739921
 20
-73.6091028853
 30
0.0
  0
VERTEX
  8
0
 10
147.757148466
 20
-79.3863228199
 30
0.0
  0
VERTEX
  8
0
 10
149.073378255
 20
-85.3411013953
 30
0.0
  0
VERTEX
  8
0
 10
150.291729778
 20
-91.4786958163
 30
0.0
  0
VERTEX
  8
0
 10
151.403503529
 20
-97.8043632876
 30
0.0
  0
VERTEX
  8
0
 10
152.4
 20
-104.323361014
 30
0.0
  0
SEQEND
  8
0
  0
LINE
  8
0
 62
0
 10
152.4
 20
-130.402954744
 30
0.0
 11
152.4
 21
-104.323361014
 31
0.0
  0
LINE
  8
0
 62
0
 10
7.33234841869
 20
-130.402954744
 30
0.0
 11
152.4
 21
-130.402954744
 31
0.0
  0
LINE
  8
0
 62
0
 10
7.33234841871
 20
-25.4
 30
0.0
 11
7.33234841869
 21
-130.402954744
 31
0.0
  0
LINE
  8
0
 62
0
 10
50.5556788419
 20
114.3
 30
0.0
 11
7.33234841871
 21
-25.4
 31
0.0
  0
ENDBLK
  0
ENDSEC
  0
SECTION
  2
ENTITIES
  0
INSERT
  2
FACE007
  8
0
 62
0
 10
0.0
 20
0.0
 30
0.0
  0
ENDSEC
  0
EOF
